MyLabJournal - Data Acquisition
…
 bike_modelbase <- bind_cols(model_names,model_prices)
 
 #Bikes in category "Rennrad"
 print(bike_modelbase)

#> # A tibble: 49 × 2
#>    model      price                       
#>    <chr>      <chr>                       
#>  1 "        " "                2.999,00 €"
#>  2 "        " "                3.299,00 €"
#>  3 "        " "                3.599,00 €"
#>  4 "        " "                4.599,00 €"
#>  5 "        " "                4.599,00 €"
#>  6 "        " "                4.999,00 €"
#>  7 "        " "                3.999,00 €"
#>  8 "        " "                5.999,00 €"
#>  9 "        " "                5.999,00 €"
#> 10 "        " "                6.499,00 €"
#> # ℹ 39 more rows
